<?xml version="1.0" standalone="no"?>
<!DOCTYPE svg PUBLIC "-//W3C//DTD SVG 20010904//EN"
 "http://www.w3.org/TR/2001/REC-SVG-20010904/DTD/svg10.dtd">
<svg version="1.0" xmlns="http://www.w3.org/2000/svg"
 width="381.000000pt" height="381.000000pt" viewBox="0 0 381.000000 381.000000"
 preserveAspectRatio="xMidYMid meet">
<metadata>
Created by potrace 1.11, written by Peter Selinger 2001-2013
</metadata>
<g transform="translate(0.000000,381.000000) scale(0.100000,-0.100000)"
fill="#000000" stroke="none">
<path d="M2305 2810 c-44 -9 -138 -34 -210 -54 -134 -39 -179 -49 -205 -49 -8
0 -67 12 -130 26 -63 14 -144 30 -180 34 -81 10 -299 10 -363 0 -83 -13 -199
-55 -272 -97 -109 -65 -162 -113 -400 -365 -143 -152 -247 -242 -329 -285 -41
-22 -46 -29 -46 -60 0 -33 6 -40 87 -98 49 -34 102 -74 119 -89 17 -16 49 -43
70 -61 21 -18 129 -122 239 -231 267 -262 376 -349 546 -433 126 -62 233 -96
427 -133 169 -32 605 -26 847 11 136 21 232 73 385 209 108 96 173 168 370
410 131 160 179 214 282 319 134 136 135 128 -29 283 -476 447 -684 601 -898
663 -77 22 -207 22 -310 0z m-875 -695 c30 -3 95 -15 143 -26 48 -10 105 -22
125 -25 20 -3 40 -8 44 -10 8 -5 111 -17 158 -17 60 -2 151 13 245 38 202 54
343 64 439 29 22 -8 64 -21 91 -29 84 -24 239 -66 261 -71 30 -6 181 -50 228
-67 l39 -13 -44 -38 c-96 -82 -256 -160 -435 -210 -104 -29 -268 -63 -348 -71
-32 -4 -67 -8 -79 -11 -108 -21 -555 -21 -717 1 -14 1 -49 6 -79 10 -148 19
-242 46 -486 142 -132 51 -249 98 -260 103 -11 5 -30 11 -41 15 -12 3 -24 15
-27 25 -4 15 1 22 21 26 15 4 115 41 222 82 347 133 350 134 500 117z"/>
</g>
</svg>
